<svg version="1.1" id="Logo" xmlns="http://www.w3.org/2000/svg" xmlns:xlink="http://www.w3.org/1999/xlink" x="0px" y="0px"
	 viewBox="0 0 24 36" style="enable-background:new 0 0 24 36;" xml:space="preserve">
<style type="text/css">
	.st0{fill:#0A0D0A;}
</style>
<g>
	<path class="st0" d="M6.3,20.6c0-1.6,0.2-3,0.6-4.2c0.4-1.3,1-2.3,1.8-3.2c0.8-0.9,1.7-1.6,2.9-2.1c1.1-0.5,2.3-0.7,3.7-0.7
		c1.4,0,2.6,0.2,3.6,0.7c1.1,0.5,2,1.1,2.7,2c0.8,0.9,1.3,1.9,1.7,3.1c0.4,1.2,0.6,2.6,0.6,4.1s-0.2,2.9-0.7,4.1
		c-0.4,1.3-1.1,2.3-1.9,3.2c-0.8,0.9-1.8,1.6-2.9,2.1c-1.1,0.5-2.4,0.8-3.8,0.8c-2.7,0-4.8-0.8-6.3-2.5C7.1,26.2,6.3,23.8,6.3,20.6z
		 M15.2,12.8c-3.8,0-5.7,2.6-5.7,7.7c0,5.1,1.8,7.7,5.4,7.7c1.9,0,3.3-0.6,4.3-1.9c1-1.3,1.5-3.2,1.5-5.8
		C20.8,15.3,18.9,12.8,15.2,12.8z"/>
	<path class="st0" d="M15.2,20.1c-1.5,0-2.3,1-2.3,3.1c0,2.1,0.7,3.1,2.2,3.1c0.8,0,1.3-0.3,1.7-0.8c0.4-0.5,0.6-1.3,0.6-2.4
		C17.5,21.2,16.7,20.1,15.2,20.1z"/>
	<path class="st0" d="M20.1,5.8L22.5,2l-0.7-0.5l-2.7,4.1c0,0,0,0,0,0c-0.8-0.2-1.6-0.3-2.4-0.4c-0.4-0.1-0.8-0.1-1.2-0.1V0.3h-0.8
		v4.8c-0.1,0-0.1,0-0.2,0c-1.2,0-2.4,0.1-3.5,0.4L8.5,1.6L7.8,2l2.4,3.6C9.6,5.8,9,6,8.5,6.2C6.8,6.9,5.2,8,4,9.4
		c-1.3,1.4-2.3,3-2.9,5c-0.7,2-1,4.2-1,6.6c0,4.8,1.2,8.5,3.6,11c2.4,2.5,5.8,3.7,10.3,3.7c1,0,2.1-0.1,3.1-0.3c1-0.2,2-0.5,2.9-1
		c0.1-0.1,0.3-0.1,0.4-0.2c-0.1-0.1-0.1-0.1-0.2-0.2c-0.5-0.6-1-1.2-1.4-1.8c-0.7,0.3-1.4,0.5-2.1,0.6C15.8,32.9,15,33,14.3,33
		c-3.1,0-5.7-1-7.6-3.1c-1.9-2-2.8-5.1-2.8-9.2c0-4.1,0.9-7.3,2.6-9.6c1.8-2.4,4.3-3.5,7.6-3.5c2.1,0,3.9,0.3,5.5,0.8
		c0.3-0.4,0.6-0.8,1-1.2c0.3-0.3,0.6-0.6,0.9-0.9c0,0-0.1,0-0.1,0C21,6.1,20.5,6,20.1,5.8z"/>
</g>
</svg>
